AN 588 Replication Project
…
  map_dfr(vars, function(var) {
    tests(df[[var]]) %>% 
      mutate(variable = var, dataset = row, length = nrow(df))  # Add variable & row names
  })
})

# Reordering the columns in my table to match those in the article
table_1 <- table_1 %>%
  select(dataset, length, variable, mean, sd)

table_1

# A tibble: 24 × 5
   dataset              length variable      mean    sd
   <chr>                 <int> <chr>        <dbl> <dbl>
 1 Outer, all specimens     39 d13C         1.92  1.03 
 2 Outer, all specimens     39 d18O         0.955 0.610
 3 Outer, all specimens     39 temperature 22.7   2.67 
 4 Inner, all specimens     36 d13C         2.22  0.784
 5 Inner, all specimens     36 d18O         1.35  0.742
 6 Inner, all specimens     36 temperature 21.0   3.24 
 7 Outer, T. squamosina      5 d13C         2.11  0.920
 8 Outer, T. squamosina      5 d18O         0.406 0.451
 9 Outer, T. squamosina      5 temperature 25.1   1.97 
10 Inner, T. squamosina      6 d13C         1.75  0.984
# ℹ 14 more rows
…
